
{
  "sites": [
    	{
		"key": "星辰资源",
		"name": "星辰资源",
		"type": 0,
		"api": "http://www.kuaibocaiji.com/api.php/provide/vod/from/kbm3u8/at/xml/",
		"playUrl": "",
		"categories": []
	},
   {
		"key": "极品资源",
		"name": "极品资源",
		"type": 0,
		"api": "https://www.jpysvip.net/api.php/provide/vod/at/xml",
		"playUrl": "",
		"categories": []
	},
                    {
      "key": "360资源",
      "name": "360资源",
      "type": 0,
      "api": "http://xa88.vip:88/api.php/provide/vod/at/xml",
      "playUrl": "https://www.2ajx.com/vip.php?url="
    },
    	{
		"key": "乐喵资源",
		"name": "乐喵资源",
		"type": 0,
		"api": "https://98hyk.cn/api.php/provide/vod/at/xml",
		"playUrl": "",
		"categories": []
	},
             {
      "key": "免费影院",
      "name": "免费影院",
      "type": 1,
      "api": "http://www.ruiuri.com/api.php/provide/vod/?ac=list",
      "playUrl": ""
    },

        {
      "key": "影派资源",
      "name": "影派资源",
      "type": 0,
      "api": "https://v.dtjos.com/api.php/provide/vod/at/xml",
      "playUrl": ""
    },
    {
      "key": "牛年资源",
      "name": "牛年资源",
      "type": 0,
      "api": "https://www.dianyingn.com/api.php/provide/vod/at/xml/",
      "playUrl": ""
    },
        {
            "key": "品極資源",
            "name": "品極資源",
            "type": 0,
            "api": "https://www.jpysvip.net/api.php/provide/vod/at/xml/",
            "categories": [
                
            ]
        },
        {
         "key": "豆瓣云",
            "name": "豆瓣云",
            "type": 0,
            "api": "http://api.bdyunzy.com/api.php/provide/vod/at/xml/",
            "playUrl": "",
            "categories": [
                
            ]
        },
        {
            "key": "穿梭資源",
            "name": "穿梭資源",
            "type": 0,
            "api": "http://ok.888hyk.com/api.php/provide/vod/at/xml",
            "playUrl": "",
            "categories": [
                
            ]
        },

        {
            "key": "速搜資源",
            "name": "速搜資源",
            "type": 0,
            "api": "http://www.susouzy.com/api.php/provide/vod/at/xml",
            "playUrl": "",
            "categories": [
                
            ]
        },

        {
            "key": "恐怖鴨資源",
            "name": "恐怖鴨資源",
            "type": 0,
            "api": "https://kongbuya.com/api.php/provide/vod/at/xml/",
            "playUrl": "",
            "categories": [
                
            ]
        },

        {
            "key": "電影牛",
            "name": "電影牛",
            "type": 0,
            "api": "https://www.dianyingn.com/api.php/provide/vod/at/xml/",
            "playUrl": "",
            "categories": [
                
            ]
        },
        {
            "key": "好好資源",
            "name": "好好資源",
            "type": 0,
            "api": "http://haohaozy.com/api.php/provide/vod/at/xml/",
            "playUrl": "",
            "categories": [
                
            ]
        },
        {
            "key": "影派資源",
            "name": "影派資源",
            "type": 0,
            "api": "https://v.dtjos.com/api.php/provide/vod/at/xml",
            "playUrl": "",
            "categories": [
                
            ]
        },
{
            "key": "极品影视",
            "name": "极品影视",
            "type": 0,
            "api": "https://www.jpysvip.net/api.php/provide/vod/at/xml/",
            "categories":[
        "动作片",
        "喜剧片",
        "爱情片",
        "科幻片",
        "恐怖片",
        "剧情片",
        "战争片",
        "国产剧",
        "香港剧",
        "韩国剧",
        "欧美剧",
        "日本剧",
        "台湾剧",
        "泰国剧",
        "综艺",
        "动漫"
]
        },

        {
            "key": "想看资源",
            "name": "想看资源",
            "type": 0,
            "api": "https://m3u8.xiangkanapi.com/provide/vod/cms/sea/at/xml",
            "playUrl": "",
            "categories":[]
        },

        {
            "key": "速影128",
            "name": "速影128",
            "type": 0,
            "api": "https://速影128.zyz/inc/api.php/",
            "playUrl": ""
        },
        {
            "key": "片库网",
            "name": "片库网",
            "type": 0,
            "api": "https://pianku.wang/api.php/provide/vod/at/xml",
            "playUrl": ""
        },

        {
            "key": "4K影院",
            "name": "4K影院",
            "type": 0,
            "api": "http://www.dijiaxia.com/api.php/provide/vod/at/xml",
            "playUrl": "",
            "categories":[]
        },

        {
            "key": "八戒云",
            "name": "八戒云",
            "type": 0,
            "api": "http://cj.bajiecaiji.com/inc/bjm3u8.php",
            "playUrl": "",
            "categories":[]
        },
        {
            "key": "77电影",
            "name": "77电影",
            "type": 1,
            "api": "https://www.77diany.com/api.php/provide/vod/",
            "playUrl": "",
            "categories":[]
        },
{
            "key": "极品-资源",
            "name": "极品-资源",
            "type": 0,
            "api": "https://www.jpysvip.net/api.php/provide/vod/at/xml/",
            "categories": [
                "动作片",
"喜剧片",
"爱情片",
"科幻片",
"恐怖片",
"剧情片",
"战争片",
"国产剧",
"香港剧",
"韩国剧",
"欧美剧",
"日本剧",
"台湾剧",
"泰国剧",
"综艺",
"动漫"
            ]
        },

    {
      "key": "2A资源站",
      "name": "2A资源站",
      "type": 1,
      "api": "http://zy.zcocc.com/api.php/provide/vod/",
      "playUrl": "",
      "categories": [
        "综艺",
        "动作片",
        "喜剧片",
        "爱情片",
        "科幻片",
        "恐怖片",
        "剧情片",
        "战争片",
        "国产剧",
        "香港剧",
        "韩国剧",
        "欧美剧",
        "微电影",
        "纪录片",
        "论理片",
        "冒险片",
        "悬疑片",
        "犯罪片",
        "灾难片",
        "魔幻片",
        "青春片",
        "音乐片",
        "其他片",
        "惊悚片",
        "动画片",
        "奇幻片",
        "台湾剧",
        "日本剧",
        "其他剧",
        "国产动漫",
        "日本动漫",
        "欧美动漫",
        "其他动漫"
      ]
    }
  ],
  "lives": [
    {
      "group": "央视",
      "channels": [
        {
          "name": "CCTV-1综合",
          "urls": [
            "http://223.110.241.206:6610/gitv/live1/G_CCTV-1-CQ/G_CCTV-1-CQ"
          ]
        },
        {
          "name": "CCTV-2财经",
          "urls": [
            "http://223.110.241.206:6610/gitv/live1/G_CCTV-2-CQ/G_CCTV-2-CQ"
          ]
        },
        {
          "name": "CCTV-3综艺",
          "urls": [
            "http://223.110.241.206:6610/gitv/live1/G_CCTV-3-CQ/G_CCTV-3-CQ"
          ]
        },
        {
          "name": "CCTV-4中文国际",
          "urls": [
            "http://223.110.241.206:6610/gitv/live1/G_CCTV-4-CQ/G_CCTV-4-CQ"
          ]
        },
        {
          "name": "CCTV-5体育",
          "urls": [
            "http://223.110.241.206:6610/cntv/live1/HD-12000k-1080P-cctv5/1.m3u8"
          ]
        },
        {
          "name": "CCTV-5+体育赛事",
          "urls": [
            "http://223.110.241.206:6610/gitv/live1/G_CCTV-5PLUS-CQ/G_CCTV-5PLUS-CQ/"
          ]
        },
        {
          "name": "CCTV-6电影",
          "urls": [
            "http://223.110.241.206:6610/gitv/live1/G_CCTV-6-CQ/G_CCTV-6-CQ"
          ]
        },
        {
          "name": "CCTV-7军事农业",
          "urls": [
            "http://223.110.241.206:6610/cntv/live1/HD-12000k-1080P-cctv7/1.m3u8"
          ]
        },
        {
          "name": "CCTV-8电视剧",
          "urls": [
            "http://223.110.241.206:6610/gitv/live1/G_CCTV-8-CQ/G_CCTV-8-CQ"
          ]
        },
        {
          "name": "CCTV-9纪录",
          "urls": [
            "http://223.110.241.206:6610/gitv/live1/G_CCTV-9-HD-265-5M/G_CCTV-9-HD-265-5M"
          ]
        },
        {
          "name": "CCTV-10科教",
          "urls": [
            "http://223.110.241.206:6610/cntv/live1/HD-8000k-1080P-cctv10/1.m3u8"
          ]
        },
        {
          "name": "CCTV-12社会与法",
          "urls": [
            "http://223.110.241.206:6610/cntv/live1/HD-8000k-1080P-cctv12/1.m3u8"
          ]
        },
        {
          "name": "CCTV-13新闻",
          "urls": [
            "http://223.110.241.206:6610/gitv/live1/G_CCTV-13-HQ/G_CCTV-13-HQ"
          ]
        },
        {
          "name": "CCTV-14少儿",
          "urls": [
            "http://223.110.241.206:6610/cntv/live1/HD-8000k-1080P-cctv14/1.m3u8"
          ]
        }
      ]
    },
    {
      "group": "卫视",
      "channels": [
        {
          "name": "安徽卫视",
          "urls": [
            "http://223.110.241.206:6610/gitv/live1/G_ANHUI-HD-265-5M/G_ANHUI-HD-265-5M"
          ]
        },
        {
          "name": "北京卫视",
          "urls": [
            "http://223.110.241.206:6610/gitv/live1/G_BEIJING-HD-265-5M/G_BEIJING-HD-265-5M"
          ]
        },
        {
          "name": "东方卫视",
          "urls": [
            "http://223.110.241.206:6610/gitv/live1/G_DONGFANG-HD-265-5M/G_DONGFANG-HD-265-5M"
          ]
        },
        {
          "name": "广东卫视",
          "urls": [
            "http://223.110.241.206:6610/gitv/live1/G_GUANGDONG-HD-265-5M/G_GUANGDONG-HD-265-5M"
          ]
        },
        {
          "name": "黑龙江卫视",
          "urls": [
            "http://223.110.241.206:6610/gitv/live1/G_HEILONGJIANG-HD-265-5M/G_HEILONGJIANG-HD-265-5M"
          ]
        },
        {
          "name": "湖北卫视",
          "urls": [
            "http://223.110.241.206:6610/gitv/live1/G_HUBEI-HD-265-5M/G_HUBEI-HD-265-5M"
          ]
        },
        {
          "name": "湖南卫视",
          "urls": [
            "http://223.110.241.206:6610/gitv/live1/G_HUNAN-HD-265-5M/G_HUNAN-HD-265-5M"
          ]
        },
        {
          "name": "江苏卫视",
          "urls": [
            "http://223.110.241.206:6610/gitv/live1/G_JIANGSU-HD-265-5M/G_JIANGSU-HD-265-5M"
          ]
        },
        {
          "name": "辽宁卫视",
          "urls": [
            "http://223.110.241.206:6610/gitv/live1/G_LIAONING-HD-265-5M/G_LIAONING-HD-265-5M"
          ]
        },
        {
          "name": "山东卫视",
          "urls": [
            "http://223.110.241.206:6610/gitv/live1/G_SHANDONG-HD-265-5M/G_SHANDONG-HD-265-5M"
          ]
        },
        {
          "name": "深圳卫视",
          "urls": [
            "http://223.110.241.206:6610/gitv/live1/G_SHENZHEN-HD-265-5M/G_SHENZHEN-HD-265-5M"
          ]
        },
        {
          "name": "天津卫视",
          "urls": [
            "http://223.110.241.206:6610/gitv/live1/G_TIANJIN-HD-265-5M/G_TIANJIN-HD-265-5M"
          ]
        }
      ]
    },
        {
      "group": "足球",
      "channels": [
        {
          "name": "五星体育",
          "urls": [
            "http://112.132.209.46/liveplay-kk.rtxapp.com/live/program/live/ssty/4000000/mnf.m3u8"
          ]
        },
        {
          "name": "魅力足球",
          "urls": [
            "http://183.207.255.188/live/program/live/mlyyhd/4000000/mnf.m3u8"
          ]
        },
        {
          "name": "劲爆体育",
          "urls": [
            "http://112.132.209.46/liveplay-kk.rtxapp.com/live/program/live/jbtyhd/4000000/mnf.m3u8"
          ]
        },
        {
          "name": "足球频道",
          "urls": [
            "http://nmglive.imfc.cn/5n1r1c/182396.m3u8"
          ]
        },
        {
          "name": "广东体育",
          "urls": [
            "http://149.129.100.78/guangdong.php?id=47"
          ]
        }
      ]
    },
    {
      "group": "港台",
      "channels": [
        {
          "name": "凤凰卫视",
          "urls": [
            "http://117.169.124.37:6610/ysten-businessmobile/live/fhchinese/1.m3u8"
          ]
        },
        {
          "name": "凤凰资讯",
          "urls": [
            "http://223.110.235.13/ott.js.chinamobile.com/PLTV/3/224/3221228098/index.m3u8",
            "http://117.169.124.37:6610/ysten-businessmobile/live/fhzixun/1.m3u8"
          ]
        },
          {
          "name": "天映经典",
          "urls": [
            "http://50.7.161.82:8278/streams/d/Celestial2/playlist.m3u8"
          ]
        },
         {
          "name": "TVB星河",
          "urls": [
            "http://50.7.161.82:8278/streams/d/Xinhe/playlist.m3u8"
          ]
        },
        {
          "name": "TVB翡翠",
          "urls": [
            "http://116.199.5.51:8114/00000000/hls/index.m3u8?Fsv_chan_hls_se_idx=188&FvSeid=1&Fsv_ctype=LIVES&Fsv_otype=1&Provider_id=&Pcontent_id=.m3u8"
          ]
        }
]
}
  ],
  "parses": [
                {
      "name": "Ckplayer",
      "url": "https://www.ckplayer.vip/jiexi/?url="
    },  
    {
      "name": "M3U8",
      "url": "https://jx.m3u8.tv/jiexi/?url="
    },    
    {
      "name": "全民解析",
      "url": "https://jx.quanmingjiexi.com/?url="
    },
    {
      "name": "parwix解析",
      "url": "https://jx.parwix.com:4433/player/?url="
    },
    {
      "name": "CKMOV解析",
      "url": "https://ckmov.ccyjjd.com/ckmov/?url="
    },
             {
      "name": "江湖解析",
        "url": "https://api.jhdyw.vip/?url="
    },
    {
      "name": "116",
      "url": "https://jx.116kan.com/?url="
    },
        {
      "name": "2Ajx",
      "url": "https://www.2ajx.com/vip.php?url="
    },
             {
      "name": "BL解析",
      "url": "https://vip.bljiex.com/?v="
    },
    {
      "name": "久看解析",
      "url": "https://9kjx.com/?url="
    },
    {
      "name": "星空(ok)",
      "url": "http://60jx.com/?url="
    },
    {
      "name": "虾米(sohu)",
      "url": "https://jx.xmflv.com/?url="
    },
    {
      "name": "8090解析",
      "url": "https://vip.laobandq.com/jiexi.php?url="
    },
    {
      "name": "盘古",
      "url": "https://www.pangujiexi.cc/jiexi.php?url="
    },
    {
      "name": "迪奥",
      "url": "https://123.1dior.cn/?url="
    },
    {
      "name": "H8",
      "url": "https://www.h8jx.com/jiexi.php?url="
    },
    {
      "name": "维多(0k)",
      "url": "https://jx.ivito.cn/?url="
    },
    {
      "name": "星驰",
      "url": "https://vip.cjys.top/?url="
    },
    {
      "name": "盘古云多路",
      "url": "https://go.yh0523.cn/y.cy?url="
    },
    {
      "name": "云端",
      "url": "https://vip.swuii.top/?url="
    },
    {
      "name": "17云",
      "url": "https://www.1717yun.com/jx/ty.php?url="
    },
    {
      "name": "200",
      "url": "https://vip.66parse.club/?url="
    },
    {
      "name": "8090G",
      "url": "https://www.8090g.cn/?url="
    }
  ],
  "flags": [
    "youku",
    "qq",
    "iqiyi",
    "qiyi",
    "letv",
    "sohu",
    "tudou",
    "pptv",
    "mgtv",
    "wasu"
  ],
  "ijk": [
    {
      "group": "软解码",
      "options": [
        {
          "category": 4,
          "name": "opensles",
          "value": "0"
        },
        {
          "category": 4,
          "name": "overlay-format",
          "value": "842225234"
        },
        {
          "category": 4,
          "name": "framedrop",
          "value": "1"
        },
        {
          "category": 4,
          "name": "soundtouch",
          "value": "1"
        },
        {
          "category": 4,
          "name": "start-on-prepared",
          "value": "1"
        },
        {
          "category": 1,
          "name": "http-detect-range-support",
          "value": "0"
        },
        {
          "category": 1,
          "name": "fflags",
          "value": "fastseek"
        },
        {
          "category": 2,
          "name": "skip_loop_filter",
          "value": "48"
        },
        {
          "category": 4,
          "name": "reconnect",
          "value": "1"
        },
        {
          "category": 4,
          "name": "max-buffer-size",
          "value": "5242880"
        },
        {
          "category": 4,
          "name": "enable-accurate-seek",
          "value": "0"
        },
        {
          "category": 4,
          "name": "mediacodec",
          "value": "0"
        },
        {
          "category": 4,
          "name": "mediacodec-auto-rotate",
          "value": "0"
        },
        {
          "category": 4,
          "name": "mediacodec-handle-resolution-change",
          "value": "0"
        },
        {
          "category": 4,
          "name": "mediacodec-hevc",
          "value": "0"
        }
      ]
    },
    {
      "group": "硬解码",
      "options": [
        {
          "category": 4,
          "name": "opensles",
          "value": "0"
        },
        {
          "category": 4,
          "name": "overlay-format",
          "value": "842225234"
        },
        {
          "category": 4,
          "name": "framedrop",
          "value": "1"
        },
        {
          "category": 4,
          "name": "soundtouch",
          "value": "1"
        },
        {
          "category": 4,
          "name": "start-on-prepared",
          "value": "1"
        },
        {
          "category": 1,
          "name": "http-detect-range-support",
          "value": "0"
        },
        {
          "category": 1,
          "name": "fflags",
          "value": "fastseek"
        },
        {
          "category": 2,
          "name": "skip_loop_filter",
          "value": "48"
        },
        {
          "category": 4,
          "name": "reconnect",
          "value": "1"
        },
        {
          "category": 4,
          "name": "max-buffer-size",
          "value": "5242880"
        },
        {
          "category": 4,
          "name": "enable-accurate-seek",
          "value": "0"
        },
        {
          "category": 4,
          "name": "mediacodec",
          "value": "1"
        },
        {
          "category": 4,
          "name": "mediacodec-auto-rotate",
          "value": "1"
        },
        {
          "category": 4,
          "name": "mediacodec-handle-resolution-change",
          "value": "1"
        },
        {
          "category": 4,
          "name": "mediacodec-hevc",
          "value": "1"
        }
      ]
    }
  ],
  "ads": [
    "mimg.0c1q0l.cn",
    "www.googletagmanager.com",
    "www.google-analytics.com",
    "mc.usihnbcq.cn",
    "mg.g1mm3d.cn",
    "mscs.svaeuzh.cn",
    "cnzz.hhttm.top",
    "tp.vinuxhome.com",
    "cnzz.mmstat.com",
    "www.baihuillq.com",
    "s23.cnzz.com",
    "z3.cnzz.com",
    "c.cnzz.com",
    "stj.v1vo.top",
    "z12.cnzz.com",
    "img.mosflower.cn",
    "tips.gamevvip.com",
    "ehwe.yhdtns.com",
    "xdn.cqqc3.com",
    "www.jixunkyy.cn",
    "sp.chemacid.cn",
    "hm.baidu.com",
    "s9.cnzz.com",
    "z6.cnzz.com",
    "um.cavuc.com",
    "mav.mavuz.com",
    "wofwk.aoidf3.com",
    "z5.cnzz.com",
    "xc.hubeijieshikj.cn",
    "tj.tianwenhu.com",
    "xg.gars57.cn",
    "k.jinxiuzhilv.com",
    "cdn.bootcss.com",
    "ppl.xunzhuo123.com",
    "xomk.jiangjunmh.top",
    "img.xunzhuo123.com",
    "z1.cnzz.com",
    "s13.cnzz.com",
    "xg.huataisangao.cn",
    "z7.cnzz.com",
    "xg.huataisangao.cn",
    "z2.cnzz.com",
    "s96.cnzz.com",
    "q11.cnzz.com",
    "thy.dacedsfa.cn",
    "xg.whsbpw.cn",
    "s19.cnzz.com",
    "z8.cnzz.com",
    "s4.cnzz.com",
    "f5w.as12df.top",
    "ae01.alicdn.com",
    "www.92424.cn",
    "k.wudejia.com",
    "vivovip.mmszxc.top",
    "qiu.xixiqiu.com",
    "cdnjs.hnfenxun.com",
    "cms.qdwght.com"
  ]
}